Capítulo 14 A / B - testing | Ciencia de Datos y Machine Learning
…
Mediante este modelo final, se realizaron las predicciones de cancelación de servicios a clientes de telecomunicaciones. Para estos clientes se cuenta con la respuesta correcta debido a que se trata de los datos de testing.

class_results <- predict(knn_classification_final_model, telco_test, type = "prob") %>% 
  bind_cols(
    Churn = telco_test$Churn,
    customerID = telco_test$customerID) %>% 
  relocate(customerID, .before = .pred_No) %>% 
  mutate(Churn = factor(Churn, levels = c('Yes', 'No'), labels = c('Yes', 'No')))

class_results

## # A tibble: 2,113 × 4
##    customerID .pred_No .pred_Yes Churn
##    <chr>         <dbl>     <dbl> <fct>
##  1 5575-GNVDE    0.969   0.0311  No   
##  2 9305-CDSKC    0.279   0.721   Yes  
##  3 6713-OKOMC    0.723   0.277   No   
##  4 7469-LKBCI    1       0       No   
##  5 9959-WOFKT    0.877   0.123   No   
##  6 4183-MYFRB    0.519   0.481   No   
##  7 1680-VDCWW    0.998   0.00238 No   
##  8 6322-HRPFA    0.845   0.155   No   
##  9 8665-UTDHZ    0.652   0.348   Yes  
## 10 5248-YGIJN    0.991   0.00923 No   
## # … with 2,103 more rows
…
Costo de promoción de servicio

El primer escenario considera que se obsequie un mes gratis de servicio al renovar un año completo. Para cada cliente se tiene en los datos el pago mensual que realizan, por lo que es posible priorizar de alguna manera a los clientes con mayor necesidad de retención

promo_1 <- class_results %>% 
  mutate(
    MonthlyCharges = telco_test$MonthlyCharges,
    Expected_Loss = .pred_Yes * MonthlyCharges) %>% 
  arrange(desc(Expected_Loss)) %>% 
  mutate(Budget = cumsum(MonthlyCharges)) %>% 
  filter(Budget <= 50000)

promo_1 %>% select(-Churn, -.pred_No)

## # A tibble: 565 × 5
##    customerID .pred_Yes MonthlyCharges Expected_Loss Budget
##    <chr>          <dbl>          <dbl>         <dbl>  <dbl>
##  1 1400-MMYXY     0.860          106.           91.1   106.
##  2 5419-CONWX     0.854           99.8          85.2   206.
##  3 2754-SDJRD     0.818          100.           81.9   306.
##  4 6210-KBBPI     0.815           99.4          81.1   405.
##  5 9300-AGZNL     0.830           94            78.0   499.
##  6 2656-TABEH     0.764          100.           76.6   600.
##  7 3178-FESZO     0.764          100.           76.5   700.
##  8 5419-JPRRN     0.754          101.           76.5   801.
##  9 0880-TKATG     0.756          101.           76.5   902.
## 10 7181-BQYBV     0.742          102.           76.0  1005.
## # … with 555 more rows
…
El segundo método es más sencillo de calcular, pues supone un costo constante para cualquier cliente. Al regalar un producto en donde la empresa paga $100 dólares por celular, se logra ofrecer \(50000/100 = 500\) productos.

promo_2 <- class_results %>% 
  mutate(
    MonthlyCharges = telco_test$MonthlyCharges,
    Profit = 100,
    Expected_Loss = .pred_Yes * MonthlyCharges) %>% 
  arrange(desc(Expected_Loss)) %>% 
  mutate(Budget = cumsum(Profit)) %>% 
  filter(Budget <= 50000)

promo_2 %>% select(-Churn, -.pred_No)

## # A tibble: 500 × 6
##    customerID .pred_Yes MonthlyCharges Profit Expected_Loss Budget
##    <chr>          <dbl>          <dbl>  <dbl>         <dbl>  <dbl>
##  1 1400-MMYXY     0.860          106.     100          91.1    100
##  2 5419-CONWX     0.854           99.8    100          85.2    200
##  3 2754-SDJRD     0.818          100.     100          81.9    300
##  4 6210-KBBPI     0.815           99.4    100          81.1    400
##  5 9300-AGZNL     0.830           94      100          78.0    500
##  6 2656-TABEH     0.764          100.     100          76.6    600
##  7 3178-FESZO     0.764          100.     100          76.5    700
##  8 5419-JPRRN     0.754          101.     100          76.5    800
##  9 0880-TKATG     0.756          101.     100          76.5    900
## 10 7181-BQYBV     0.742          102.     100          76.0   1000
## # … with 490 more rows
…
A diferencia del primer método, el umbral de probabilidad con esta segunda campaña es cercano a 0.30, lo que implica mayor precisión a costa de menor cobertura. Adicionalmente, el beneficio total de renovación de contrato es menor que el beneficio alcanzado por el primer método en el escenario utópico en que todos los clientes renuevan.

Estos cálculos sirven exclusivamente para acotar los escenarios, pues no es de esperarse que realmente todos los clientes renueven sus contratos. En las siguientes secciones se procede a realizar experimentos para evaluar cuál de las campañas tiene una mayor tasa de retención de clientes.

set.seed(13582)
results_promo_1 <- promo_1 %>% 
  rowwise() %>% 
  mutate(
    result = rbinom(1,1,0.40),
    cancell = if_else(result == 1, "Yes", "No")) %>% 
  select(-result)

results_promo_1

## # A tibble: 565 × 8
## # Rowwise: 
##    customerID .pred_No .pred_Yes Churn MonthlyCharges Expected_…¹ Budget cancell
##    <chr>         <dbl>     <dbl> <fct>          <dbl>       <dbl>  <dbl> <chr>  
##  1 1400-MMYXY    0.140     0.860 Yes            106.         91.1   106. No     
##  2 5419-CONWX    0.146     0.854 Yes             99.8        85.2   206. No     
##  3 2754-SDJRD    0.182     0.818 No             100.         81.9   306. No     
##  4 6210-KBBPI    0.185     0.815 Yes             99.4        81.1   405. Yes    
##  5 9300-AGZNL    0.170     0.830 Yes             94          78.0   499. No     
##  6 2656-TABEH    0.236     0.764 Yes            100.         76.6   600. No     
##  7 3178-FESZO    0.236     0.764 Yes            100.         76.5   700. No     
##  8 5419-JPRRN    0.246     0.754 Yes            101.         76.5   801. Yes    
##  9 0880-TKATG    0.244     0.756 Yes            101.         76.5   902. No     
## 10 7181-BQYBV    0.258     0.742 Yes            102.         76.0  1005. No     
## # … with 555 more rows, and abbreviated variable name ¹​Expected_Loss
…
marco <- telco_test %>% 
  select(customerID, gender, Contract) %>% 
  mutate(
    cod_gender = as.numeric(as.factor(gender)),
    cod_contract = as.numeric(as.factor(Contract)),
  ) %>% 
  unite(estrato, starts_with("cod_"), sep = "-") %>% 
  left_join(
    class_results %>% select(customerID, .pred_Yes)
    ) %>% 
  filter(.pred_Yes >= 0.20)

marco

## # A tibble: 1,046 × 5
##    customerID gender Contract       estrato .pred_Yes
##    <chr>      <chr>  <chr>          <chr>       <dbl>
##  1 9305-CDSKC Female Month-to-month 1-1         0.721
##  2 6713-OKOMC Female Month-to-month 1-1         0.277
##  3 4183-MYFRB Female Month-to-month 1-1         0.481
##  4 8665-UTDHZ Male   Month-to-month 2-1         0.348
##  5 6047-YHPVI Male   Month-to-month 2-1         0.508
##  6 4080-IIARD Female Month-to-month 1-1         0.377
##  7 3714-NTNFO Female Month-to-month 1-1         0.292
##  8 1658-BYGOY Male   Month-to-month 2-1         0.604
##  9 7410-OIEDU Male   Month-to-month 2-1         0.505
## 10 2273-QCKXA Male   Month-to-month 2-1         0.488
## # … with 1,036 more rows
…
