Capítulo 8 K-Nearest-Neighbor | Ciencia de Datos y Machine Learning
…
stopCluster(cluster)

knn_tune_result %>% saveRDS("models/knn_model_reg.rds")

Podemos obtener las métricas de cada fold con el siguiente código:

knn_tune_result <- readRDS("models/knn_model_reg.rds")

Paso 7: Análisis de métricas de error e hiperparámetros (Vuelve al paso 3, si es necesario)

collect_metrics(knn_tune_result)

## # A tibble: 196 × 8
##        K weight_func .metric .estimator      mean     n   std_err .config       
##    <int> <chr>       <chr>   <chr>          <dbl> <int>     <dbl> <chr>         
##  1    11 cos         mae     standard   31367.       10  642.     Preprocessor1…
##  2    11 cos         mape    standard      18.7      10    0.439  Preprocessor1…
##  3    11 cos         rmse    standard   46086.       10 1104.     Preprocessor1…
##  4    11 cos         rsq     standard       0.669    10    0.0151 Preprocessor1…
##  5    30 cos         mae     standard   31355.       10  649.     Preprocessor1…
##  6    30 cos         mape    standard      18.8      10    0.427  Preprocessor1…
##  7    30 cos         rmse    standard   46534.       10 1242.     Preprocessor1…
##  8    30 cos         rsq     standard       0.665    10    0.0134 Preprocessor1…
##  9    38 cos         mae     standard   31528.       10  673.     Preprocessor1…
## 10    38 cos         mape    standard      18.9      10    0.427  Preprocessor1…
## # … with 186 more rows
…
Paso 10: Validar poder predictivo con datos de prueba

Imaginemos por un momento que pasa un mes de tiempo desde que hicimos nuestro modelo, es hora de ponerlo a prueba prediciendo valores de nuevos elementos:

results_reg <- predict(final_knn_model_reg, ames_test) %>% 
  dplyr::bind_cols(Sale_Price = ames_test$Sale_Price, .) %>% 
  dplyr::rename(pred_knn_reg = .pred)

results_reg

## # A tibble: 733 × 2
##    Sale_Price pred_knn_reg
##         <int>        <dbl>
##  1     105000      117872.
##  2     185000      183378.
##  3     180400      184216.
##  4     141000       92359.
##  5     210000      222663.
##  6     216000      201289.
##  7     149900      170697.
##  8     105500      151156.
##  9      88000      151156.
## 10     146000      166595.
## # … with 723 more rows
…
stopCluster(cluster)

knn_tune_result %>% saveRDS("models/knn_model_cla.rds")

knn_tune_result <- readRDS("models/knn_model_cla.rds")

Paso 7: Análisis de métricas de error e hiperparámetros (Vuelve al paso 3, si es necesario)

collect_metrics(knn_tune_result)

## # A tibble: 96 × 8
##        K weight_func .metric .estimator  mean     n std_err .config             
##    <int> <chr>       <chr>   <chr>      <dbl> <int>   <dbl> <chr>               
##  1    16 cos         pr_auc  binary     0.923    10 0.00238 Preprocessor1_Model…
##  2    16 cos         roc_auc binary     0.814    10 0.00481 Preprocessor1_Model…
##  3    23 cos         pr_auc  binary     0.926    10 0.00234 Preprocessor1_Model…
##  4    23 cos         roc_auc binary     0.822    10 0.00465 Preprocessor1_Model…
##  5    32 cos         pr_auc  binary     0.928    10 0.00218 Preprocessor1_Model…
##  6    32 cos         roc_auc binary     0.827    10 0.00456 Preprocessor1_Model…
##  7    40 cos         pr_auc  binary     0.930    10 0.00214 Preprocessor1_Model…
##  8    40 cos         roc_auc binary     0.829    10 0.00438 Preprocessor1_Model…
##  9    43 cos         pr_auc  binary     0.930    10 0.00219 Preprocessor1_Model…
## 10    43 cos         roc_auc binary     0.830    10 0.00448 Preprocessor1_Model…
## # … with 86 more rows
…
Paso 10: Validar poder predictivo con datos de prueba

Imaginemos por un momento que pasa un mes de tiempo desde que hicimos nuestro modelo, es hora de ponerlo a prueba prediciendo valores de nuevos elementos:

results_cla <- predict(final_knn_model_cla, telco_test, type = 'prob') %>% 
  dplyr::bind_cols(Churn = telco_test$Churn, .) %>% 
  mutate(Churn = factor(Churn, levels = c('Yes', 'No'), labels = c('Yes', 'No')))

results_cla

## # A tibble: 2,113 × 3
##    Churn .pred_No .pred_Yes
##    <fct>    <dbl>     <dbl>
##  1 No       0.959   0.0414 
##  2 Yes      0.268   0.732  
##  3 No       0.724   0.276  
##  4 No       1       0      
##  5 No       0.883   0.117  
##  6 No       0.515   0.485  
##  7 No       0.994   0.00557
##  8 No       0.835   0.165  
##  9 Yes      0.642   0.358  
## 10 No       0.987   0.0126 
## # … with 2,103 more rows
…
## # A tibble: 2 × 3
##   .metric .estimator .estimate
##   <chr>   <chr>          <dbl>
## 1 roc_auc binary         0.834
## 2 pr_auc  binary         0.629

pr_curve_data <- pr_curve(
  results_cla, 
  truth = Churn, 
  estimate = .pred_Yes
  )
pr_curve_data

## # A tibble: 1,890 × 3
##    .threshold  recall precision
##         <dbl>   <dbl>     <dbl>
##  1    Inf     0           1    
##  2      0.850 0.00177     1    
##  3      0.848 0.00353     0.667
##  4      0.845 0.00530     0.75 
##  5      0.843 0.00883     0.833
##  6      0.840 0.0106      0.857
##  7      0.838 0.0141      0.889
##  8      0.838 0.0159      0.9  
##  9      0.835 0.0177      0.909
## 10      0.835 0.0194      0.917
## # … with 1,880 more rows

roc_curve_data <- roc_curve(
  results_cla, 
  truth = Churn, 
  estimate = .pred_Yes
  )
roc_curve_data

## # A tibble: 1,891 × 3
##      .threshold specificity sensitivity
##           <dbl>       <dbl>       <dbl>
##  1 -Inf               0           1    
##  2    0               0           1    
##  3    0.0000199       0.123       0.993
##  4    0.0000704       0.124       0.993
##  5    0.000167        0.125       0.993
##  6    0.000288        0.125       0.993
##  7    0.000599        0.126       0.993
##  8    0.000921        0.127       0.993
##  9    0.00118         0.127       0.993
## 10    0.00126         0.128       0.993
## # … with 1,881 more rows
…
