Capítulo 10 Regularización Elasticnet | Ciencia de Datos y Machine Learning
…
stopCluster(cluster)

elasticnet_tune_result %>% saveRDS("models/elasticnet_model_reg.rds")

elasticnet_tune_result <- readRDS("models/elasticnet_model_reg.rds")

Paso 7: Análisis de métricas de error e hiperparámetros (Vuelve al paso 3, si es necesario)

Podemos obtener las métricas de cada fold con el siguiente código:

collect_metrics(elasticnet_tune_result)

## # A tibble: 400 × 8
##     penalty mixture .metric .estimator      mean     n   std_err .config        
##       <dbl>   <dbl> <chr>   <chr>          <dbl> <int>     <dbl> <chr>          
##  1 3.81e-12  0.0139 mae     standard   32607.       10  544.     Preprocessor1_…
##  2 3.81e-12  0.0139 mape    standard      19.1      10    0.268  Preprocessor1_…
##  3 3.81e-12  0.0139 rmse    standard   48347.       10 1024.     Preprocessor1_…
##  4 3.81e-12  0.0139 rsq     standard       0.641    10    0.0176 Preprocessor1_…
##  5 4.32e- 2  0.0160 mae     standard   32609.       10  543.     Preprocessor1_…
##  6 4.32e- 2  0.0160 mape    standard      19.1      10    0.268  Preprocessor1_…
##  7 4.32e- 2  0.0160 rmse    standard   48347.       10 1025.     Preprocessor1_…
##  8 4.32e- 2  0.0160 rsq     standard       0.641    10    0.0177 Preprocessor1_…
##  9 7.31e- 8  0.0361 mae     standard   32617.       10  541.     Preprocessor1_…
## 10 7.31e- 8  0.0361 mape    standard      19.1      10    0.268  Preprocessor1_…
## # … with 390 more rows
…
Paso 10: Validar poder predictivo con datos de prueba

Imaginemos por un momento que pasa un mes de tiempo desde que hicimos nuestro modelo, es hora de ponerlo a prueba prediciendo valores de nuevos elementos:

results <- predict(final_elasticnet_regression_model, ames_test) %>%
  dplyr::bind_cols(Sale_Price = ames_test$Sale_Price) %>%
  dplyr::rename(pred_elasticnet_reg = .pred)

results

## # A tibble: 733 × 2
##    pred_elasticnet_reg Sale_Price
##                  <dbl>      <int>
##  1              95091.     105000
##  2             175072.     185000
##  3             189332.     180400
##  4              85542.     141000
##  5             244179.     210000
##  6             214542.     216000
##  7             164313.     149900
##  8             122589.     105500
##  9             122589.      88000
## 10             164965.     146000
## # … with 723 more rows
…
Paso 5: Creación de grid search

elasticnet_param_grid <- grid_random(
  penalty(
    range = c(-4, 0.1),
    trans = log10_trans()
  ),
  dials::mixture(range = c(0, 1)),
  size = 50
)

elasticnet_param_grid

## # A tibble: 50 × 2
##     penalty mixture
##       <dbl>   <dbl>
##  1 0.000172   0.756
##  2 0.194      0.460
##  3 0.0430     0.978
##  4 0.0102     0.909
##  5 0.000735   0.635
##  6 0.00285    0.129
##  7 0.172      0.965
##  8 0.0433     0.723
##  9 0.000138   0.643
## 10 0.000504   0.239
## # … with 40 more rows
…
etn2 <- Sys.time(); etn2 - etnt1

stopCluster(cluster)

elasticnet_tune_result %>% saveRDS("models/elasticnet_class_model.rds")

Paso 7: Análisis de métricas de error e hiperparámetros (Vuelve al paso 3, si es necesario)

elasticnet_tune_result <- readRDS("models/elasticnet_class_model.rds")

collect_metrics(elasticnet_tune_result)

## # A tibble: 100 × 8
##     penalty  mixture .metric .estimator  mean     n std_err .config             
##       <dbl>    <dbl> <chr>   <chr>      <dbl> <int>   <dbl> <chr>               
##  1 0.0494   0.000985 pr_auc  binary     0.928    10 0.00365 Preprocessor1_Model…
##  2 0.0494   0.000985 roc_auc binary     0.822    10 0.00629 Preprocessor1_Model…
##  3 0.000837 0.0152   pr_auc  binary     0.928    10 0.00362 Preprocessor1_Model…
##  4 0.000837 0.0152   roc_auc binary     0.823    10 0.00626 Preprocessor1_Model…
##  5 0.181    0.0240   pr_auc  binary     0.927    10 0.00381 Preprocessor1_Model…
##  6 0.181    0.0240   roc_auc binary     0.819    10 0.00643 Preprocessor1_Model…
##  7 0.155    0.0244   pr_auc  binary     0.927    10 0.00380 Preprocessor1_Model…
##  8 0.155    0.0244   roc_auc binary     0.819    10 0.00645 Preprocessor1_Model…
##  9 0.0147   0.0368   pr_auc  binary     0.929    10 0.00359 Preprocessor1_Model…
## 10 0.0147   0.0368   roc_auc binary     0.823    10 0.00626 Preprocessor1_Model…
## # … with 90 more rows
…
Paso 10: Validar poder predictivo con datos de prueba

Imaginemos por un momento que pasa un mes de tiempo desde que hicimos nuestro modelo, es hora de ponerlo a prueba prediciendo valores de nuevos elementos:

class_results <- predict(final_elasticnet_class_model, telco_test, type = "prob") %>%
  bind_cols(Churn = telco_test$Churn) %>% 
  mutate(Churn = factor(Churn, levels = c('Yes', 'No'), labels = c('Yes', 'No'))) 

class_results

## # A tibble: 2,113 × 3
##    .pred_No .pred_Yes Churn
##       <dbl>     <dbl> <fct>
##  1    0.848    0.152  No   
##  2    0.442    0.558  Yes  
##  3    0.715    0.285  No   
##  4    0.922    0.0782 No   
##  5    0.921    0.0788 No   
##  6    0.543    0.457  No   
##  7    0.883    0.117  No   
##  8    0.726    0.274  No   
##  9    0.700    0.300  Yes  
## 10    0.926    0.0738 No   
## # … with 2,103 more rows
…
A continuación, conoceremos el nivel de sensitividad y especificidad para cada punto de corte:

roc_curve_data <- roc_curve(
  class_results, 
  truth = Churn, 
  estimate = .pred_Yes
  )

roc_curve_data

## # A tibble: 2,085 × 3
##    .threshold specificity sensitivity
##         <dbl>       <dbl>       <dbl>
##  1  -Inf         0                  1
##  2     0.0617    0                  1
##  3     0.0622    0.000646           1
##  4     0.0625    0.00129            1
##  5     0.0626    0.00194            1
##  6     0.0627    0.00259            1
##  7     0.0629    0.00323            1
##  8     0.0629    0.00388            1
##  9     0.0630    0.00452            1
## 10     0.0630    0.00517            1
## # … with 2,075 more rows
…
De igual manera, podemos calcular la precisión y cobertura para cada punte de corte:

pr_curve_data <- pr_curve(
  class_results, 
  truth = Churn, 
  estimate = .pred_Yes
  )

pr_curve_data

## # A tibble: 2,084 × 3
##    .threshold  recall precision
##         <dbl>   <dbl>     <dbl>
##  1    Inf     0           1    
##  2      0.695 0.00177     1    
##  3      0.666 0.00353     1    
##  4      0.660 0.00530     1    
##  5      0.644 0.00530     0.75 
##  6      0.640 0.00707     0.8  
##  7      0.638 0.00883     0.833
##  8      0.633 0.0106      0.857
##  9      0.632 0.0124      0.875
## 10      0.629 0.0141      0.889
## # … with 2,074 more rows
…
