Capítulo 4 Tidyverse | Ciencia de Datos y Machine Learning
…
4.1.1 Seleccionar columnas

Observamos que nuestros datos tienen 2,930 observaciones y 74 variables, con select() podemos seleccionar las variables que se indiquen.

ames_housing %>% select(Lot_Area, Neighborhood, Year_Sold, Sale_Price)

## # A tibble: 2,930 × 4
##    Lot_Area Neighborhood Year_Sold Sale_Price
##       <dbl> <chr>            <dbl>      <dbl>
##  1    31770 North_Ames        2010     215000
##  2    11622 North_Ames        2010     105000
##  3    14267 North_Ames        2010     172000
##  4    11160 North_Ames        2010     244000
##  5    13830 Gilbert           2010     189900
##  6     9978 Gilbert           2010     195500
##  7     4920 Stone_Brook       2010     213500
##  8     5005 Stone_Brook       2010     191500
##  9     5389 Stone_Brook       2010     236500
## 10     7500 Gilbert           2010     189000
## # … with 2,920 more rows
## # ℹ Use `print(n = ...)` to see more rows

¡¡ RECORDAR !!

El operador pipe (%>%) se usa para conectar un elemento con una función o acción a realizar. En este caso solo se indica que en los datos de ames se seleccionan 4 variables.

Con select() y contains() podemos seleccionar variables con alguna cadena de texto.

ames_housing %>% select(contains("Area"))

## # A tibble: 2,930 × 5
##    Lot_Area Mas_Vnr_Area Gr_Liv_Area Garage_Area Pool_Area
##       <dbl>        <dbl>       <dbl>       <dbl>     <dbl>
##  1    31770          112        1656         528         0
##  2    11622            0         896         730         0
##  3    14267          108        1329         312         0
##  4    11160            0        2110         522         0
##  5    13830            0        1629         482         0
##  6     9978           20        1604         470         0
##  7     4920            0        1338         582         0
##  8     5005            0        1280         506         0
##  9     5389            0        1616         608         0
## 10     7500            0        1804         442         0
## # … with 2,920 more rows
## # ℹ Use `print(n = ...)` to see more rows

De igual manera, con select(), ends_with y start_with() podemos seleccionar que inicien o terminen con alguna cadena de texto.

ames_housing %>% select(starts_with("Garage"))

## # A tibble: 2,930 × 5
##    Garage_Type Garage_Finish Garage_Cars Garage_Area Garage_Cond
##    <chr>       <chr>               <dbl>       <dbl> <chr>      
##  1 Attchd      Fin                     2         528 Typical    
##  2 Attchd      Unf                     1         730 Typical    
##  3 Attchd      Unf                     1         312 Typical    
##  4 Attchd      Fin                     2         522 Typical    
##  5 Attchd      Fin                     2         482 Typical    
##  6 Attchd      Fin                     2         470 Typical    
##  7 Attchd      Fin                     2         582 Typical    
##  8 Attchd      RFn                     2         506 Typical    
##  9 Attchd      RFn                     2         608 Typical    
## 10 Attchd      Fin                     2         442 Typical    
## # … with 2,920 more rows
## # ℹ Use `print(n = ...)` to see more rows
…
table(ames_housing$Sale_Condition)

## 
## Abnorml AdjLand  Alloca  Family  Normal Partial 
##     190      12      24      46    2413     245

¡¡ SPOILER !!

En un modelo predictivo de Machine Learning, no es correcto agregar columnas cuyo valor es conocido hasta el momento de la observación. Es decir, no deben agregarse variables que no se conozca su valor al momento de la predicción, como es el caso de Condición de venta.

Ahora usaremos la función filter para quedarnos solo con las observaciones con condición de venta “normal”.

ames_housing %>% filter(Sale_Condition == "Normal")

## # A tibble: 2,413 × 74
##    MS_Sub…¹ MS_Zo…² Lot_F…³ Lot_A…⁴ Street Alley Lot_S…⁵ Land_…⁶ Utili…⁷ Lot_C…⁸
##    <chr>    <chr>     <dbl>   <dbl> <chr>  <chr> <chr>   <chr>   <chr>   <chr>  
##  1 One_Sto… Reside…     141   31770 Pave   No_A… Slight… Lvl     AllPub  Corner 
##  2 One_Sto… Reside…      80   11622 Pave   No_A… Regular Lvl     AllPub  Inside 
##  3 One_Sto… Reside…      81   14267 Pave   No_A… Slight… Lvl     AllPub  Corner 
##  4 One_Sto… Reside…      93   11160 Pave   No_A… Regular Lvl     AllPub  Corner 
##  5 Two_Sto… Reside…      74   13830 Pave   No_A… Slight… Lvl     AllPub  Inside 
##  6 Two_Sto… Reside…      78    9978 Pave   No_A… Slight… Lvl     AllPub  Inside 
##  7 One_Sto… Reside…      41    4920 Pave   No_A… Regular Lvl     AllPub  Inside 
##  8 One_Sto… Reside…      43    5005 Pave   No_A… Slight… HLS     AllPub  Inside 
##  9 One_Sto… Reside…      39    5389 Pave   No_A… Slight… Lvl     AllPub  Inside 
## 10 Two_Sto… Reside…      60    7500 Pave   No_A… Regular Lvl     AllPub  Inside 
## # … with 2,403 more rows, 64 more variables: Land_Slope <chr>,
## #   Neighborhood <chr>, Condition_1 <chr>, Condition_2 <chr>, Bldg_Type <chr>,
## #   House_Style <chr>, Overall_Cond <chr>, Year_Built <dbl>,
## #   Year_Remod_Add <dbl>, Roof_Style <chr>, Roof_Matl <chr>,
## #   Exterior_1st <chr>, Exterior_2nd <chr>, Mas_Vnr_Type <chr>,
## #   Mas_Vnr_Area <dbl>, Exter_Cond <chr>, Foundation <chr>, Bsmt_Cond <chr>,
## #   Bsmt_Exposure <chr>, BsmtFin_Type_1 <chr>, BsmtFin_SF_1 <dbl>, …
## # ℹ Use `print(n = ...)` to see more rows, and `colnames()` to see all variable names

También se puede usar para filtrar variables numéricas:

ames_housing %>% filter(Lot_Area > 1000 & Sale_Price >= 150000)

## # A tibble: 1,677 × 74
##    MS_Sub…¹ MS_Zo…² Lot_F…³ Lot_A…⁴ Street Alley Lot_S…⁵ Land_…⁶ Utili…⁷ Lot_C…⁸
##    <chr>    <chr>     <dbl>   <dbl> <chr>  <chr> <chr>   <chr>   <chr>   <chr>  
##  1 One_Sto… Reside…     141   31770 Pave   No_A… Slight… Lvl     AllPub  Corner 
##  2 One_Sto… Reside…      81   14267 Pave   No_A… Slight… Lvl     AllPub  Corner 
##  3 One_Sto… Reside…      93   11160 Pave   No_A… Regular Lvl     AllPub  Corner 
##  4 Two_Sto… Reside…      74   13830 Pave   No_A… Slight… Lvl     AllPub  Inside 
##  5 Two_Sto… Reside…      78    9978 Pave   No_A… Slight… Lvl     AllPub  Inside 
##  6 One_Sto… Reside…      41    4920 Pave   No_A… Regular Lvl     AllPub  Inside 
##  7 One_Sto… Reside…      43    5005 Pave   No_A… Slight… HLS     AllPub  Inside 
##  8 One_Sto… Reside…      39    5389 Pave   No_A… Slight… Lvl     AllPub  Inside 
##  9 Two_Sto… Reside…      60    7500 Pave   No_A… Regular Lvl     AllPub  Inside 
## 10 Two_Sto… Reside…      75   10000 Pave   No_A… Slight… Lvl     AllPub  Corner 
## # … with 1,667 more rows, 64 more variables: Land_Slope <chr>,
## #   Neighborhood <chr>, Condition_1 <chr>, Condition_2 <chr>, Bldg_Type <chr>,
## #   House_Style <chr>, Overall_Cond <chr>, Year_Built <dbl>,
## #   Year_Remod_Add <dbl>, Roof_Style <chr>, Roof_Matl <chr>,
## #   Exterior_1st <chr>, Exterior_2nd <chr>, Mas_Vnr_Type <chr>,
## #   Mas_Vnr_Area <dbl>, Exter_Cond <chr>, Foundation <chr>, Bsmt_Cond <chr>,
## #   Bsmt_Exposure <chr>, BsmtFin_Type_1 <chr>, BsmtFin_SF_1 <dbl>, …
## # ℹ Use `print(n = ...)` to see more rows, and `colnames()` to see all variable names

Notemos que en el ejemplo anterior se usa &, que ayuda a filtrar por dos condiciones.

También puede usarse | para filtrar por alguna de las dos condiciones.

ames_housing %>% filter(Lot_Area < 1000 | Sale_Price <= 150000)

## # A tibble: 1,271 × 74
##    MS_Sub…¹ MS_Zo…² Lot_F…³ Lot_A…⁴ Street Alley Lot_S…⁵ Land_…⁶ Utili…⁷ Lot_C…⁸
##    <chr>    <chr>     <dbl>   <dbl> <chr>  <chr> <chr>   <chr>   <chr>   <chr>  
##  1 One_Sto… Reside…      80   11622 Pave   No_A… Regular Lvl     AllPub  Inside 
##  2 One_Sto… Reside…     140   19138 Pave   No_A… Regular Lvl     AllPub  Corner 
##  3 One_Sto… Reside…       0   11241 Pave   No_A… Slight… Lvl     AllPub  CulDSac
##  4 One_Sto… Reside…       0   12537 Pave   No_A… Slight… Lvl     AllPub  CulDSac
##  5 One_Sto… Reside…      65    8450 Pave   No_A… Regular Lvl     AllPub  Inside 
##  6 One_Sto… Reside…      70    8400 Pave   No_A… Regular Lvl     AllPub  Corner 
##  7 One_Sto… Reside…      70   10500 Pave   No_A… Regular Lvl     AllPub  FR2    
##  8 Two_Sto… Reside…      21    1680 Pave   No_A… Regular Lvl     AllPub  Inside 
##  9 Two_Sto… Reside…      21    1680 Pave   No_A… Regular Lvl     AllPub  Inside 
## 10 Two_Sto… Reside…      21    1680 Pave   No_A… Regular Lvl     AllPub  Inside 
## # … with 1,261 more rows, 64 more variables: Land_Slope <chr>,
## #   Neighborhood <chr>, Condition_1 <chr>, Condition_2 <chr>, Bldg_Type <chr>,
## #   House_Style <chr>, Overall_Cond <chr>, Year_Built <dbl>,
## #   Year_Remod_Add <dbl>, Roof_Style <chr>, Roof_Matl <chr>,
## #   Exterior_1st <chr>, Exterior_2nd <chr>, Mas_Vnr_Type <chr>,
## #   Mas_Vnr_Area <dbl>, Exter_Cond <chr>, Foundation <chr>, Bsmt_Cond <chr>,
## #   Bsmt_Exposure <chr>, BsmtFin_Type_1 <chr>, BsmtFin_SF_1 <dbl>, …
## # ℹ Use `print(n = ...)` to see more rows, and `colnames()` to see all variable names
…
EJERCICIO:

Practicar la función de filtro de observaciones usando los operadores auxiliares.

Concatenar el resultado de seleccionar columnas y posteriormente filtrar columnas.

4.1.3 Ordenar registros

La función arrange() se utiliza para ordenar las filas de un data frame de acuerdo a una o varias variables. Este ordenamiento puede ser ascendente o descendente.

Por defecto arrange() ordena las filas por orden ascendente:

ames_housing %>% arrange(Sale_Price)

## # A tibble: 2,930 × 74
##    MS_Sub…¹ MS_Zo…² Lot_F…³ Lot_A…⁴ Street Alley Lot_S…⁵ Land_…⁶ Utili…⁷ Lot_C…⁸
##    <chr>    <chr>     <dbl>   <dbl> <chr>  <chr> <chr>   <chr>   <chr>   <chr>  
##  1 One_Sto… Reside…      68    9656 Pave   No_A… Regular Lvl     AllPub  Inside 
##  2 One_Sto… A_agr        80   14584 Pave   No_A… Regular Low     AllPub  Inside 
##  3 One_Sto… C_all        60    7879 Pave   No_A… Regular Lvl     AllPub  Inside 
##  4 One_Sto… Reside…      60    8088 Pave   Grav… Regular Lvl     AllPub  Inside 
##  5 One_Sto… C_all        50    9000 Pave   No_A… Regular Lvl     AllPub  Inside 
##  6 One_and… Reside…      50    5925 Pave   No_A… Regular Lvl     AllPub  Inside 
##  7 One_Sto… Reside…      50    5000 Pave   No_A… Regular Low     AllPub  Inside 
##  8 Two_Sto… C_all        50    8500 Pave   Paved Regular Lvl     AllPub  Inside 
##  9 One_Sto… C_all        72    9392 Pave   No_A… Regular Lvl     AllPub  Corner 
## 10 One_Sto… Reside…      50    5925 Pave   No_A… Regular Lvl     AllPub  Corner 
## # … with 2,920 more rows, 64 more variables: Land_Slope <chr>,
## #   Neighborhood <chr>, Condition_1 <chr>, Condition_2 <chr>, Bldg_Type <chr>,
## #   House_Style <chr>, Overall_Cond <chr>, Year_Built <dbl>,
## #   Year_Remod_Add <dbl>, Roof_Style <chr>, Roof_Matl <chr>,
## #   Exterior_1st <chr>, Exterior_2nd <chr>, Mas_Vnr_Type <chr>,
## #   Mas_Vnr_Area <dbl>, Exter_Cond <chr>, Foundation <chr>, Bsmt_Cond <chr>,
## #   Bsmt_Exposure <chr>, BsmtFin_Type_1 <chr>, BsmtFin_SF_1 <dbl>, …
## # ℹ Use `print(n = ...)` to see more rows, and `colnames()` to see all variable names

Si las queremos ordenar de forma ascendente, lo haremos del siguiente modo:

ames_housing %>% arrange(desc(Sale_Price))

## # A tibble: 2,930 × 74
##    MS_Sub…¹ MS_Zo…² Lot_F…³ Lot_A…⁴ Street Alley Lot_S…⁵ Land_…⁶ Utili…⁷ Lot_C…⁸
##    <chr>    <chr>     <dbl>   <dbl> <chr>  <chr> <chr>   <chr>   <chr>   <chr>  
##  1 Two_Sto… Reside…     104   21535 Pave   No_A… Slight… Lvl     AllPub  Corner 
##  2 Two_Sto… Reside…     160   15623 Pave   No_A… Slight… Lvl     AllPub  Corner 
##  3 Two_Sto… Reside…     118   35760 Pave   No_A… Slight… Lvl     AllPub  CulDSac
##  4 One_Sto… Reside…     106   12720 Pave   No_A… Regular HLS     AllPub  Inside 
##  5 One_Sto… Reside…     100   12919 Pave   No_A… Slight… Lvl     AllPub  Inside 
##  6 One_Sto… Reside…     105   13693 Pave   No_A… Regular Lvl     AllPub  Inside 
##  7 One_Sto… Reside…      52   51974 Pave   No_A… Slight… Lvl     AllPub  CulDSac
##  8 Two_Sto… Reside…     114   17242 Pave   No_A… Slight… Lvl     AllPub  Inside 
##  9 Two_Sto… Reside…     107   13891 Pave   No_A… Regular Lvl     AllPub  Inside 
## 10 Two_Sto… Reside…      85   16056 Pave   No_A… Slight… Lvl     AllPub  Inside 
## # … with 2,920 more rows, 64 more variables: Land_Slope <chr>,
## #   Neighborhood <chr>, Condition_1 <chr>, Condition_2 <chr>, Bldg_Type <chr>,
## #   House_Style <chr>, Overall_Cond <chr>, Year_Built <dbl>,
## #   Year_Remod_Add <dbl>, Roof_Style <chr>, Roof_Matl <chr>,
## #   Exterior_1st <chr>, Exterior_2nd <chr>, Mas_Vnr_Type <chr>,
## #   Mas_Vnr_Area <dbl>, Exter_Cond <chr>, Foundation <chr>, Bsmt_Cond <chr>,
## #   Bsmt_Exposure <chr>, BsmtFin_Type_1 <chr>, BsmtFin_SF_1 <dbl>, …
## # ℹ Use `print(n = ...)` to see more rows, and `colnames()` to see all variable names

Si se desea usar dos o más columnas para realizar el ordenamiento, deben separarse por comas cada una de las características

ames_housing %>% 
 arrange(Sale_Condition, desc(Sale_Price), Lot_Area) %>% 
 select(Sale_Condition, Sale_Price, Lot_Area)

## # A tibble: 2,930 × 3
##    Sale_Condition Sale_Price Lot_Area
##    <chr>               <dbl>    <dbl>
##  1 Abnorml            745000    15623
##  2 Abnorml            552000    14836
##  3 Abnorml            475000    11778
##  4 Abnorml            390000    13418
##  5 Abnorml            328900     5119
##  6 Abnorml            310000    14541
##  7 Abnorml            290000     9950
##  8 Abnorml            287000    15498
##  9 Abnorml            258000    12090
## 10 Abnorml            257000    10994
## # … with 2,920 more rows
## # ℹ Use `print(n = ...)` to see more rows
Notemos que en el ejemplo anterior usamos dos pipes (%>%), como habíamos mencionado se pueden usar los necesarios para combinar funciones.

4.1.4 Agregar / Modificar

Con la función mutate() podemos computar transformaciones de variables en un data frame. A menudo, tendremos la necesidad de crear nuevas variables que se calculan a partir de variables existentes. La función mutate() proporciona una interfaz clara para realizar este tipo de operaciones.

Por ejemplo, haremos el cálculo de la antigüedad del inmueble a partir de las variables Year_Sold y Year_Remod_Add:

ejemplo_mutate <- ames_housing %>% 
 select(Year_Sold, Year_Remod_Add) %>%
 mutate(Antique = Year_Sold - Year_Remod_Add)

ejemplo_mutate

## # A tibble: 2,930 × 3
##    Year_Sold Year_Remod_Add Antique
##        <dbl>          <dbl>   <dbl>
##  1      2010           1960      50
##  2      2010           1961      49
##  3      2010           1958      52
##  4      2010           1968      42
##  5      2010           1998      12
##  6      2010           1998      12
##  7      2010           2001       9
##  8      2010           1992      18
##  9      2010           1996      14
## 10      2010           1999      11
## # … with 2,920 more rows
## # ℹ Use `print(n = ...)` to see more rows

El ejemplo anterior crea una nueva variable. Ahora se presenta otro ejemplo en donde se modifica una variable ya creada.

ejemplo_mutate %>% 
 mutate(Antique = Antique * 12)

## # A tibble: 2,930 × 3
##    Year_Sold Year_Remod_Add Antique
##        <dbl>          <dbl>   <dbl>
##  1      2010           1960     600
##  2      2010           1961     588
##  3      2010           1958     624
##  4      2010           1968     504
##  5      2010           1998     144
##  6      2010           1998     144
##  7      2010           2001     108
##  8      2010           1992     216
##  9      2010           1996     168
## 10      2010           1999     132
## # … with 2,920 more rows
## # ℹ Use `print(n = ...)` to see more rows
…
Mas adelante veremos como combinar esta función con la función group_by() para calcular estadísticos agrupados por alguna característica de interés.

4.1.6 Agrupamiento

La función group_by() agrupa un conjunto de filas de acuerdo con los valores de una o más columnas o expresiones.

Usaremos el ejemplo anterior. Primero creamos nuestra nueva variable Antique, después agrupamos por vecindario y al final calculamos la media de la variable Antique. Gracias al agrupamiento, nos regresara una media por cada grupo creado, es decir, nos regresara el promedio de la antigüedad por vecindario.

ames_housing %>% 
 mutate(Antique = Year_Sold - Year_Remod_Add) %>% 
 group_by(Neighborhood) %>% 
 summarise(Mean_Antique = round(mean(Antique), 0))

## # A tibble: 28 × 2
##    Neighborhood        Mean_Antique
##    <chr>                      <dbl>
##  1 Bloomington_Heights            2
##  2 Blueste                       25
##  3 Briardale                     35
##  4 Brookside                     39
##  5 Clear_Creek                   28
##  6 College_Creek                  8
##  7 Crawford                      29
##  8 Edwards                       33
##  9 Gilbert                        9
## 10 Green_Hills                   14
## # … with 18 more rows
## # ℹ Use `print(n = ...)` to see more rows
