Capítulo 11 Workflowsets & Stacking | Ciencia de Datos y Machine Learning
…
Por último… Imaginemos por un momento que pasa un mes de tiempo desde que hicimos nuestro modelo, es hora de ponerlo a prueba prediciendo valores de nuevos elementos:

results <- predict(final_regularized_xgb_model, ames_test) %>% 
  dplyr::bind_cols(truth = ames_test$Sale_Price) %>% 
  dplyr::rename(pred_xgb_reg = .pred, Sale_Price = truth)

results

## # A tibble: 733 × 2
##    pred_xgb_reg Sale_Price
##           <dbl>      <int>
##  1      109202.     105000
##  2      186124.     185000
##  3      169706.     180400
##  4      114391.     141000
##  5      237815.     210000
##  6      205541.     216000
##  7      152242.     149900
##  8      110091.     105500
##  9      110091.      88000
## 10      147398.     146000
## # … with 723 more rows
…
