Capítulo 9 Árboles de decisión | Ciencia de Datos y Machine Learning
…
stopCluster(cluster)

tree_tune_result %>% saveRDS("models/tree_model_reg.rds")

tree_tune_result <- readRDS("models/tree_model_reg.rds")

Paso 7: Análisis de métricas de error e hiperparámetros (Vuelve al paso 3, si es necesario)

Podemos obtener las métricas de cada fold con el siguiente código:

collect_metrics(tree_tune_result)

## # A tibble: 400 × 9
##    cost_complexity tree_de…¹ min_n .metric .esti…²    mean     n std_err .config
##              <dbl>     <int> <int> <chr>   <chr>     <dbl> <int>   <dbl> <chr>  
##  1    0.0000000387         9     4 mae     standa… 3.20e+4    10 8.77e+2 Prepro…
##  2    0.0000000387         9     4 mape    standa… 1.88e+1    10 5.06e-1 Prepro…
##  3    0.0000000387         9     4 rmse    standa… 4.90e+4    10 2.10e+3 Prepro…
##  4    0.0000000387         9     4 rsq     standa… 6.40e-1    10 2.45e-2 Prepro…
##  5    0.00124              4    30 mae     standa… 3.27e+4    10 5.58e+2 Prepro…
##  6    0.00124              4    30 mape    standa… 1.98e+1    10 5.22e-1 Prepro…
##  7    0.00124              4    30 rmse    standa… 4.92e+4    10 1.44e+3 Prepro…
##  8    0.00124              4    30 rsq     standa… 6.24e-1    10 1.18e-2 Prepro…
##  9    0.000000480          6    37 mae     standa… 3.13e+4    10 5.15e+2 Prepro…
## 10    0.000000480          6    37 mape    standa… 1.87e+1    10 3.97e-1 Prepro…
## # … with 390 more rows, and abbreviated variable names ¹​tree_depth, ²​.estimator
…
Paso 10: Validar poder predictivo con datos de prueba

Imaginemos por un momento que pasa un mes de tiempo desde que hicimos nuestro modelo, es hora de ponerlo a prueba prediciendo valores de nuevos elementos:

results_reg <- predict(final_tree_model_reg, ames_test) %>% 
  dplyr::bind_cols(Sale_Price = ames_test$Sale_Price, .) %>% 
  dplyr::rename(pred_tree_reg = .pred)

results_reg

## # A tibble: 733 × 2
##    Sale_Price pred_tree_reg
##         <int>         <dbl>
##  1     105000       121439.
##  2     185000       138200.
##  3     180400       178947.
##  4     141000       108578.
##  5     210000       242482.
##  6     216000       202009.
##  7     149900       138200.
##  8     105500       138200.
##  9      88000       138200.
## 10     146000       151483.
## # … with 723 more rows
…
